EPsy 8252 - nhl.csv
…
fci: Fan cost index (FCI) for each season. There are no data for 2012, since that year the NHL was locked out. The FCI comprises the prices of four (4) average-price tickets, two (2) small draft beers, four (4) small soft drinks, four (4) regular-size hot dogs, parking for one (1) car, two (2) game programs and two (2) least-expensive, adult-size adjustable caps. Costs were determined by telephone calls with representatives of the teams, venues and concessionaires. Identical questions were asked in all interviews.

year: NHL season (e.g., 2002 indicates the 2002–2003 NHL season)

hs_hockey: An dummy coded variable that indicates whether there is state organized high school hockey in the team’s location (0 = no; 1 = yes). This is a proxy for whether there is a hockey tradition in the team’s location.

Preview

# Import data
nhl = readr::read_csv(file = "https://raw.githubusercontent.com/zief0002/bespectacled-antelope/main/data/nhl.csv")

# View data
nhl

# A tibble: 279 × 4
   team              fci  year hs_hockey
   <chr>           <dbl> <dbl>     <dbl>
 1 Anaheim Ducks    212.  2002         0
 2 Anaheim Ducks    229.  2003         0
 3 Anaheim Ducks    211.  2006         0
 4 Anaheim Ducks    260.  2007         0
 5 Anaheim Ducks    274.  2008         0
 6 Anaheim Ducks    285.  2010         0
 7 Anaheim Ducks    239.  2011         0
 8 Anaheim Ducks    285.  2013         0
 9 Anaheim Ducks    289.  2014         0
10 Arizona Coyotes  214.  2002         0
# … with 269 more rows
