EPsy 8252 - woods.csv
…
manuf_groups: The number of manufacturing groups registered to lobby in the state in 1990 standardized by gross state product to account for the fact that the density of organized interests is greater in states with larger economies.

env_groups: The number of environmental groups registered to lobby in the state in 1990 standardized by gross state product to account for the fact that the density of organized interests is greater in states with larger economies.

Preview

# Import data
woods = readr::read_csv(file = "https://raw.githubusercontent.com/zief0002/bespectacled-antelope/main/data/woods.csv")

# View data
woods |>
    print(width = Inf)

# A tibble: 50 × 10
   state env_prog_str corrupt wealth toxic_waste dem_party_control
   <chr>        <dbl>   <dbl>  <dbl>       <dbl>             <dbl>
 1 AK               8   0.586   44.3        1.31             0.625
 2 AL               6   0.630   18.9        4.70             0.800
 3 AR               5   0.132   18.4        3.71             0.900
 4 AZ              13   0.318   19.3        4.19             0.300
 5 CA              34   0.498   25.5        4.69             0.600
 6 CO              17   0.212   23.8        2.75             0.5  
 7 CT              29   0.213   30.2        3.63             0.900
 8 DE              15   0.301   34.3        2.15             0.300
 9 FL              24   0.604   19.9        4.12             0.800
10 GA              12   0.546   22.7        4.46             1    
   interparty_comp public_env manuf_groups env_groups
             <dbl>      <dbl>        <dbl>      <dbl>
 1           53.5        2.42     0.000654  0.000346 
 2           27.3        2.37     0.000538  0.000064 
 3            9.26       2.42     0.000636  0.0000455
 4           33.9        2.52     0.000783  0.000148 
 5           47.3        2.7      0.000259  0.000014 
 6           40.2        2.5      0.000521  0.000242 
 7           52.8        2.59     0.000586  0.000192 
 8           39.7        2.60     0.00105   0.000127 
 9           31.1        2.61     0.000875  0.000246 
10           16.2        2.49     0.000651  0.000143 
# … with 40 more rows
…
